#include <UIPEthernet.h>

EthernetClient client;
signed long next;

// the dns server ip
IPAddress dnServer(192, 168, 1, 1);
// the router's gateway address:
IPAddress gateway(192, 168, 1, 1);
// the subnet:
IPAddress subnet(255, 255, 255, 0);
//the IP address is dependent on your network 
IPAddress ip(192, 168, 1, 60);//IPAddress 